{
    "name": "IssueList",
    "fields": [
        {
            "fieldName": "name",
            "fieldType": "String",
            "fieldValidateRules": [
                "required"
            ]
        }
    ],
    "relationships": [
        {
            "relationshipType": "one-to-many",
            "otherEntityName": "issue",
            "otherEntityRelationshipName": "issueList",
            "relationshipName": "issue"
        },
        {
            "relationshipType": "many-to-one",
            "otherEntityName": "listConnection",
            "otherEntityRelationshipName": "issueList",
            "relationshipName": "listConnection",
            "otherEntityField": "name"
        }
    ],
    "changelogDate": "20190615184743",
    "entityTableName": "issue_list",
    "dto": "no",
    "pagination": "pagination",
    "service": "no",
    "jpaMetamodelFiltering": false,
    "fluentMethods": true,
    "clientRootFolder": "",
    "applications": "*"
}