{
    "name": "Team",
    "fields": [
        {
            "fieldName": "name",
            "fieldType": "String",
            "fieldValidateRules": [
                "required",
                "minlength"
            ],
            "fieldValidateRulesMinlength": 3
        }
    ],
    "relationships": [
        {
            "relationshipType": "one-to-one",
            "otherEntityName": "workspace",
            "otherEntityRelationshipName": "team",
            "relationshipName": "workspace",
            "otherEntityField": "name",
            "ownerSide": true
        }
    ],
    "changelogDate": "20190615184741",
    "entityTableName": "team",
    "dto": "no",
    "pagination": "pagination",
    "service": "no",
    "jpaMetamodelFiltering": false,
    "fluentMethods": true,
    "clientRootFolder": "",
    "applications": "*"
}