id;name;type
1;Harbor Montana;INBOX
2;white Brand Money Market Account;OUTBOX
3;Refined Squares;INBOX
4;EXE projection Fresh;OUTBOX
5;withdrawal;OUTBOX
6;ability Hat Iraq;INBOX
7;User-centric Gloves;OUTBOX
8;facilitate Tasty Concrete Chips Exclusive;INBOX
9;mission-critical;INBOX
10;Canadian Dollar;OUTBOX
